{
	"appenders" : [
		{
			"type"       : "file",
			"filename"   : "logs/server.log",
			"maxLogSize" : 1000000,
			"backups"    : 10,
			"layout"     : { 
				"type"    : "pattern",
				"pattern" : "%r %p %m"
			}
			
		},
		{
			"categoryxxx" : "production",
			"type"       : "console",
			"layout"     : { 
				"type"    : "pattern",
				"pattern" : "%r %[%p%] %m"
			}
		}
	],
	"replaceConsole" : "true",

	"levels": {
		"tests"      :  "DEBUG",
		"production" : "debug"
	}
}
